Workshop Day 2
…
Mean - also known as the average. This takes all the values in a dataset and the divides them by the total number of individuals in the dataset.

Median - this takes the middle value of a range of values. If there is an even number of observations it finds the mid point between the two middle observations.

Let’s load some data and see what this looks like in the real world.

low <- read_csv("https://raw.githubusercontent.com/ryanburge/pls2003_sp17/master/salary1.csv")
high <- read_csv("https://raw.githubusercontent.com/ryanburge/pls2003_sp17/master/salary2.csv")
both <- read_csv("https://raw.githubusercontent.com/ryanburge/pls2003_sp17/master/salary3.csv")

What you have here are three datasets. Let’s take a look at each individually.

low

## # A tibble: 100 x 3
##       X1 salary            names
##    <int>  <int>            <chr>
##  1     1   8354 Brendan Reynolds
##  2     2  49227     Jasmine Rios
##  3     3  16250    Yasa Choudhry
##  4     4  34698 Celeste Ratcliff
##  5     5  11044    Alex Hinojosa
##  6     6  31085  Kaylin Shattuck
##  7     7   1392     Erika Dragoo
##  8     8  22707     Joseph Mason
##  9     9  48113    John Santiago
## 10    10  36125        Tam Liles
## # ... with 90 more rows
…
